EESchema Schematic File Version 4
LIBS:Cube_Board-cache
EELAYER 29 0
EELAYER END
$Descr A4 11693 8268
encoding utf-8
Sheet 1 5
Title "Cube Control Board"
Date "2019-12-05"
Rev "1"
Comp "FI MUNI"
Comment1 "Oldřich Pecák"
Comment2 ""
Comment3 ""
Comment4 ""
$EndDescr
$Comp
L LoaDy:TMC429-LI U1
U 1 1 5DE708F2
P 7250 3475
F 0 "U1" H 7275 4490 50  0000 C CNN
F 1 "TMC429-LI" H 7275 4399 50  0000 C CNN
F 2 "Package_DFN_QFN:QFN-32-1EP_5x5mm_P0.5mm_EP3.1x3.1mm" H 7250 2175 50  0001 C CNN
F 3 "" H 7100 3575 50  0001 C CNN
	1    7250 3475
	1    0    0    -1  
$EndComp
Wire Wire Line
	7850 3425 8375 3425
Wire Wire Line
	8375 3425 8375 2275
Wire Wire Line
	8375 2275 9275 2275
Wire Wire Line
	9275 2375 8425 2375
Wire Wire Line
	8425 2375 8425 3525
Wire Wire Line
	8425 3525 7850 3525
Wire Wire Line
	9275 3125 8475 3125
Wire Wire Line
	8475 3125 8475 3625
Wire Wire Line
	8475 3625 7850 3625
Wire Wire Line
	9275 3225 8525 3225
Wire Wire Line
	8525 3225 8525 3725
Wire Wire Line
	8525 3725 7850 3725
Wire Wire Line
	9275 3975 8525 3975
Wire Wire Line
	8525 3975 8525 3825
Wire Wire Line
	8525 3825 7850 3825
Wire Wire Line
	7850 3925 8475 3925
Wire Wire Line
	8475 3925 8475 4075
Wire Wire Line
	8475 4075 9275 4075
Wire Wire Line
	9275 4825 8525 4825
Wire Wire Line
	8525 4825 8525 3975
Connection ~ 8525 3975
Wire Wire Line
	8475 4075 8475 4925
Wire Wire Line
	8475 4925 9275 4925
Connection ~ 8475 4075
NoConn ~ 7850 2825
NoConn ~ 7850 3025
NoConn ~ 7850 3225
NoConn ~ 6700 3625
NoConn ~ 6700 3525
NoConn ~ 6700 3425
NoConn ~ 6700 3325
NoConn ~ 6700 3225
NoConn ~ 6700 3125
$Comp
L power:GND #PWR0101
U 1 1 5DEC50A8
P 7925 4625
F 0 "#PWR0101" H 7925 4375 50  0001 C CNN
F 1 "GND" H 7930 4452 50  0000 C CNN
F 2 "" H 7925 4625 50  0001 C CNN
F 3 "" H 7925 4625 50  0001 C CNN
	1    7925 4625
	1    0    0    -1  
$EndComp
Wire Wire Line
	7925 4625 7925 4525
Wire Wire Line
	7925 4225 7850 4225
Wire Wire Line
	7850 4325 7925 4325
Connection ~ 7925 4325
Wire Wire Line
	7925 4325 7925 4225
Wire Wire Line
	7850 4425 7925 4425
Connection ~ 7925 4425
Wire Wire Line
	7925 4425 7925 4325
Wire Wire Line
	7850 4525 7925 4525
Connection ~ 7925 4525
Wire Wire Line
	7925 4525 7925 4425
Wire Wire Line
	6700 2725 6625 2725
Wire Wire Line
	6700 2825 6625 2825
Wire Wire Line
	6625 2825 6625 2725
Connection ~ 6625 2725
Wire Wire Line
	6700 2925 6625 2925
Wire Wire Line
	6625 2925 6625 2825
Connection ~ 6625 2825
$Comp
L Device:C_Small C3
U 1 1 5DEC83C6
P 6350 2875
F 0 "C3" H 6400 2950 50  0000 L CNN
F 1 "470n" H 6375 2800 50  0000 L CNN
F 2 "Capacitor_SMD:C_0603_1608Metric" H 6350 2875 50  0001 C CNN
F 3 "~" H 6350 2875 50  0001 C CNN
	1    6350 2875
	1    0    0    -1  
$EndComp
$Comp
L Device:C_Small C2
U 1 1 5DEC8659
P 6075 2875
F 0 "C2" H 6125 2950 50  0000 L CNN
F 1 "100n" H 6100 2800 50  0000 L CNN
F 2 "Capacitor_SMD:C_0603_1608Metric" H 6075 2875 50  0001 C CNN
F 3 "~" H 6075 2875 50  0001 C CNN
	1    6075 2875
	1    0    0    -1  
$EndComp
$Comp
L power:GND #PWR0102
U 1 1 5DECA9BA
P 6350 2975
F 0 "#PWR0102" H 6350 2725 50  0001 C CNN
F 1 "GND" H 6355 2802 50  0000 C CNN
F 2 "" H 6350 2975 50  0001 C CNN
F 3 "" H 6350 2975 50  0001 C CNN
	1    6350 2975
	1    0    0    -1  
$EndComp
$Comp
L power:GND #PWR0103
U 1 1 5DECAB78
P 6075 2975
F 0 "#PWR0103" H 6075 2725 50  0001 C CNN
F 1 "GND" H 6080 2802 50  0000 C CNN
F 2 "" H 6075 2975 50  0001 C CNN
F 3 "" H 6075 2975 50  0001 C CNN
	1    6075 2975
	1    0    0    -1  
$EndComp
Wire Wire Line
	6350 2775 6350 2725
Connection ~ 6350 2725
Wire Wire Line
	6350 2725 6625 2725
Wire Wire Line
	6075 2775 6075 2725
Connection ~ 6075 2725
Wire Wire Line
	6075 2725 6350 2725
Text Label 9150 2475 2    50   ~ 0
X_FAULT
Text Label 9150 3325 2    50   ~ 0
Y_FAULT
Wire Wire Line
	9150 3325 9275 3325
Wire Wire Line
	9150 2475 9275 2475
Text Label 9150 4175 2    50   ~ 0
Z1_FAULT
Wire Wire Line
	9150 4175 9275 4175
Text Label 9150 5025 2    50   ~ 0
Z2_FAULT
Wire Wire Line
	9150 5025 9275 5025
Text Label 9150 2575 2    50   ~ 0
X_ENABLE
Wire Wire Line
	9150 2575 9275 2575
Text Label 9150 3425 2    50   ~ 0
Y_ENABLE
Wire Wire Line
	9150 3425 9275 3425
Text Label 9150 4275 2    50   ~ 0
Z1_ENABLE
Wire Wire Line
	9150 4275 9275 4275
Text Label 9150 5125 2    50   ~ 0
Z2_ENABLE
Wire Wire Line
	9150 5125 9275 5125
NoConn ~ 6700 4525
$Comp
L Connector_Generic:Conn_01x04 J10
U 1 1 5DEE5002
P 4950 2800
F 0 "J10" H 5030 2792 50  0000 L CNN
F 1 "Sensor" H 5030 2701 50  0000 L CNN
F 2 "Connector_PinHeader_2.54mm:PinHeader_1x04_P2.54mm_Vertical" H 4950 2800 50  0001 C CNN
F 3 "~" H 4950 2800 50  0001 C CNN
	1    4950 2800
	1    0    0    -1  
$EndComp
$Comp
L Connector_Generic:Conn_01x02 J9
U 1 1 5DEE5732
P 4900 4000
F 0 "J9" H 4980 3992 50  0000 L CNN
F 1 "X_limit" H 4980 3901 50  0000 L CNN
F 2 "Connector_PinHeader_2.54mm:PinHeader_1x02_P2.54mm_Vertical" H 4900 4000 50  0001 C CNN
F 3 "~" H 4900 4000 50  0001 C CNN
	1    4900 4000
	1    0    0    -1  
$EndComp
$Comp
L Connector_Generic:Conn_01x02 J7
U 1 1 5DEE5A03
P 4875 4975
F 0 "J7" H 4955 4967 50  0000 L CNN
F 1 "Y_limit" H 4955 4876 50  0000 L CNN
F 2 "Connector_PinHeader_2.54mm:PinHeader_1x02_P2.54mm_Vertical" H 4875 4975 50  0001 C CNN
F 3 "~" H 4875 4975 50  0001 C CNN
	1    4875 4975
	1    0    0    -1  
$EndComp
$Comp
L power:GND #PWR0104
U 1 1 5DE81017
P 6575 4625
F 0 "#PWR0104" H 6575 4375 50  0001 C CNN
F 1 "GND" H 6580 4452 50  0000 C CNN
F 2 "" H 6575 4625 50  0001 C CNN
F 3 "" H 6575 4625 50  0001 C CNN
	1    6575 4625
	1    0    0    -1  
$EndComp
Wire Wire Line
	6575 4625 6575 4425
Wire Wire Line
	6575 4425 6700 4425
Text Label 6550 3825 2    50   ~ 0
CLK_20
Wire Wire Line
	6550 3825 6700 3825
Text Label 6550 3925 2    50   ~ 0
SPI_SCK
Text Label 6550 4025 2    50   ~ 0
SPI_MOSI
Text Label 6550 4225 2    50   ~ 0
SPI_MISO
Text Label 6550 4125 2    50   ~ 0
SPI_CS
Wire Wire Line
	6550 3925 6700 3925
Wire Wire Line
	6700 4025 6550 4025
Wire Wire Line
	6700 4125 6550 4125
Wire Wire Line
	6700 4325 6550 4325
Text Label 6550 4325 2    50   ~ 0
SDOZ_C
Wire Wire Line
	6550 4225 6700 4225
$Comp
L Connector_Generic:Conn_02x10_Odd_Even J5
U 1 1 5DE960B1
P 2350 2500
F 0 "J5" H 2400 3117 50  0000 C CNN
F 1 "K64F_2" H 2400 3026 50  0000 C CNN
F 2 "Connector_PinHeader_2.54mm:PinHeader_2x10_P2.54mm_Vertical" H 2350 2500 50  0001 C CNN
F 3 "~" H 2350 2500 50  0001 C CNN
	1    2350 2500
	-1   0    0    -1  
$EndComp
$Comp
L Connector_Generic:Conn_02x08_Odd_Even J3
U 1 1 5DE96FEC
P 2325 3650
F 0 "J3" H 2375 4167 50  0000 C CNN
F 1 "K64F_1" H 2375 4076 50  0000 C CNN
F 2 "Connector_PinHeader_2.54mm:PinHeader_2x08_P2.54mm_Vertical" H 2325 3650 50  0001 C CNN
F 3 "~" H 2325 3650 50  0001 C CNN
	1    2325 3650
	-1   0    0    -1  
$EndComp
$Comp
L Connector_Generic:Conn_02x08_Odd_Even J4
U 1 1 5DE97845
P 2325 4850
F 0 "J4" H 2375 5367 50  0000 C CNN
F 1 "K64F_3" H 2375 5276 50  0000 C CNN
F 2 "Connector_PinHeader_2.54mm:PinHeader_2x08_P2.54mm_Vertical" H 2325 4850 50  0001 C CNN
F 3 "~" H 2325 4850 50  0001 C CNN
	1    2325 4850
	-1   0    0    -1  
$EndComp
$Comp
L Connector_Generic:Conn_02x06_Odd_Even J6
U 1 1 5DE9BC82
P 2350 6175
F 0 "J6" H 2400 6592 50  0000 C CNN
F 1 "K64F_4" H 2400 6501 50  0000 C CNN
F 2 "Connector_PinHeader_2.54mm:PinHeader_2x06_P2.54mm_Vertical" H 2350 6175 50  0001 C CNN
F 3 "~" H 2350 6175 50  0001 C CNN
	1    2350 6175
	-1   0    0    -1  
$EndComp
Text Label 2525 3350 0    50   ~ 0
CLK_20
Text Label 2550 2100 0    50   ~ 0
I2C_SCL
Text Label 2550 2200 0    50   ~ 0
I2C_SDA
Text Label 2550 2500 0    50   ~ 0
SPI_SCK
Text Label 2550 2600 0    50   ~ 0
SPI_MISO
Text Label 2550 2700 0    50   ~ 0
SPI_MOSI
Text Label 2550 2800 0    50   ~ 0
SPI_CS
Text Label 2550 2900 0    50   ~ 0
SDOZ_C
$Comp
L power:GND #PWR0105
U 1 1 5DEBD270
P 4675 3050
F 0 "#PWR0105" H 4675 2800 50  0001 C CNN
F 1 "GND" H 4680 2877 50  0000 C CNN
F 2 "" H 4675 3050 50  0001 C CNN
F 3 "" H 4675 3050 50  0001 C CNN
	1    4675 3050
	1    0    0    -1  
$EndComp
Wire Wire Line
	4675 3050 4675 3000
Wire Wire Line
	4675 3000 4750 3000
Wire Wire Line
	4675 2900 4750 2900
Text Label 4675 2800 2    50   ~ 0
I2C_SCL
Text Label 4675 2700 2    50   ~ 0
I2C_SDA
Wire Wire Line
	4675 2700 4750 2700
Wire Wire Line
	4750 2800 4675 2800
$Comp
L power:GND #PWR0106
U 1 1 5DED1B61
P 4650 4150
F 0 "#PWR0106" H 4650 3900 50  0001 C CNN
F 1 "GND" H 4655 3977 50  0000 C CNN
F 2 "" H 4650 4150 50  0001 C CNN
F 3 "" H 4650 4150 50  0001 C CNN
	1    4650 4150
	1    0    0    -1  
$EndComp
$Comp
L power:GND #PWR0107
U 1 1 5DED1D96
P 4625 5125
F 0 "#PWR0107" H 4625 4875 50  0001 C CNN
F 1 "GND" H 4630 4952 50  0000 C CNN
F 2 "" H 4625 5125 50  0001 C CNN
F 3 "" H 4625 5125 50  0001 C CNN
	1    4625 5125
	1    0    0    -1  
$EndComp
$Comp
L Device:R_Small R1
U 1 1 5DEDCEDE
P 4625 4800
F 0 "R1" H 4684 4846 50  0000 L CNN
F 1 "4K7" H 4684 4755 50  0000 L CNN
F 2 "Resistor_SMD:R_0603_1608Metric" H 4625 4800 50  0001 C CNN
F 3 "~" H 4625 4800 50  0001 C CNN
	1    4625 4800
	1    0    0    -1  
$EndComp
$Comp
L Device:R_Small R3
U 1 1 5DEDD529
P 4650 3825
F 0 "R3" H 4709 3871 50  0000 L CNN
F 1 "4K7" H 4709 3780 50  0000 L CNN
F 2 "Resistor_SMD:R_0603_1608Metric" H 4650 3825 50  0001 C CNN
F 3 "~" H 4650 3825 50  0001 C CNN
	1    4650 3825
	1    0    0    -1  
$EndComp
Wire Wire Line
	4650 4150 4650 4100
Wire Wire Line
	4650 4100 4700 4100
Wire Wire Line
	4625 5125 4625 5075
Wire Wire Line
	4625 5075 4675 5075
$Comp
L power:+3V3 #PWR0108
U 1 1 5DEE72C9
P 4625 4700
F 0 "#PWR0108" H 4625 4550 50  0001 C CNN
F 1 "+3V3" H 4640 4873 50  0000 C CNN
F 2 "" H 4625 4700 50  0001 C CNN
F 3 "" H 4625 4700 50  0001 C CNN
	1    4625 4700
	1    0    0    -1  
$EndComp
$Comp
L power:+3V3 #PWR0109
U 1 1 5DEE75DF
P 4650 3725
F 0 "#PWR0109" H 4650 3575 50  0001 C CNN
F 1 "+3V3" H 4665 3898 50  0000 C CNN
F 2 "" H 4650 3725 50  0001 C CNN
F 3 "" H 4650 3725 50  0001 C CNN
	1    4650 3725
	1    0    0    -1  
$EndComp
$Comp
L power:+3V3 #PWR0110
U 1 1 5DEE8F43
P 5975 2700
F 0 "#PWR0110" H 5975 2550 50  0001 C CNN
F 1 "+3V3" H 5990 2873 50  0000 C CNN
F 2 "" H 5975 2700 50  0001 C CNN
F 3 "" H 5975 2700 50  0001 C CNN
	1    5975 2700
	1    0    0    -1  
$EndComp
Wire Wire Line
	5975 2725 5975 2700
Wire Wire Line
	5975 2725 6075 2725
$Comp
L power:+3V3 #PWR0111
U 1 1 5DEEBB23
P 4675 2900
F 0 "#PWR0111" H 4675 2750 50  0001 C CNN
F 1 "+3V3" V 4690 3028 50  0000 L CNN
F 2 "" H 4675 2900 50  0001 C CNN
F 3 "" H 4675 2900 50  0001 C CNN
	1    4675 2900
	0    -1   -1   0   
$EndComp
Wire Wire Line
	4675 4975 4625 4975
Wire Wire Line
	4625 4975 4625 4900
Wire Wire Line
	4625 4975 4550 4975
Connection ~ 4625 4975
Wire Wire Line
	4700 4000 4650 4000
Wire Wire Line
	4650 4000 4650 3925
Wire Wire Line
	4650 4000 4575 4000
Connection ~ 4650 4000
Text Label 4550 4975 2    50   ~ 0
Y_LIMIT
$Comp
L power:+24V #PWR0112
U 1 1 5DF290B1
P 9075 2125
F 0 "#PWR0112" H 9075 1975 50  0001 C CNN
F 1 "+24V" H 9090 2298 50  0000 C CNN
F 2 "" H 9075 2125 50  0001 C CNN
F 3 "" H 9075 2125 50  0001 C CNN
	1    9075 2125
	1    0    0    -1  
$EndComp
$Comp
L power:+24V #PWR0113
U 1 1 5DF2C4A9
P 9075 2975
F 0 "#PWR0113" H 9075 2825 50  0001 C CNN
F 1 "+24V" H 9090 3148 50  0000 C CNN
F 2 "" H 9075 2975 50  0001 C CNN
F 3 "" H 9075 2975 50  0001 C CNN
	1    9075 2975
	1    0    0    -1  
$EndComp
$Comp
L power:+24V #PWR0114
U 1 1 5DF2CCF8
P 9075 3825
F 0 "#PWR0114" H 9075 3675 50  0001 C CNN
F 1 "+24V" H 9090 3998 50  0000 C CNN
F 2 "" H 9075 3825 50  0001 C CNN
F 3 "" H 9075 3825 50  0001 C CNN
	1    9075 3825
	1    0    0    -1  
$EndComp
Wire Wire Line
	9075 3825 9075 3875
Wire Wire Line
	9075 3875 9275 3875
Wire Wire Line
	9075 2975 9075 3025
Wire Wire Line
	9075 3025 9275 3025
Wire Wire Line
	9075 2175 9075 2125
Wire Wire Line
	9075 2175 9275 2175
$Comp
L power:+24V #PWR0115
U 1 1 5DF37F76
P 9075 4675
F 0 "#PWR0115" H 9075 4525 50  0001 C CNN
F 1 "+24V" H 9090 4848 50  0000 C CNN
F 2 "" H 9075 4675 50  0001 C CNN
F 3 "" H 9075 4675 50  0001 C CNN
	1    9075 4675
	1    0    0    -1  
$EndComp
Wire Wire Line
	9075 4675 9075 4725
Wire Wire Line
	9075 4725 9275 4725
Text Label 2525 4050 0    50   ~ 0
Z_LIMIT
Text Label 2525 3450 0    50   ~ 0
X_LIMIT
Text Label 2525 3950 0    50   ~ 0
Y_LIMIT
Text Label 2025 3550 2    50   ~ 0
X_FAULT
Text Label 2025 4050 2    50   ~ 0
X_ENABLE
Text Label 2025 3650 2    50   ~ 0
Y_FAULT
Text Label 2025 3950 2    50   ~ 0
Y_ENABLE
Text Label 2025 3450 2    50   ~ 0
Z1_FAULT
Text Label 2525 3650 0    50   ~ 0
Z1_ENABLE
Text Label 2025 3350 2    50   ~ 0
Z2_FAULT
Text Label 2525 3850 0    50   ~ 0
Z2_ENABLE
Wire Wire Line
	2025 4650 1900 4650
Wire Wire Line
	1900 4650 1900 4850
Wire Wire Line
	1900 4850 2025 4850
$Comp
L power:+3V3 #PWR0117
U 1 1 5DF69B84
P 1900 4475
F 0 "#PWR0117" H 1900 4325 50  0001 C CNN
F 1 "+3V3" H 1915 4648 50  0000 C CNN
F 2 "" H 1900 4475 50  0001 C CNN
F 3 "" H 1900 4475 50  0001 C CNN
	1    1900 4475
	1    0    0    -1  
$EndComp
Wire Wire Line
	1900 4475 1900 4650
Connection ~ 1900 4650
Wire Wire Line
	2025 5050 1900 5050
$Comp
L power:GND #PWR0118
U 1 1 5DF7569C
P 1900 5325
F 0 "#PWR0118" H 1900 5075 50  0001 C CNN
F 1 "GND" H 1905 5152 50  0000 C CNN
F 2 "" H 1900 5325 50  0001 C CNN
F 3 "" H 1900 5325 50  0001 C CNN
	1    1900 5325
	1    0    0    -1  
$EndComp
Wire Wire Line
	1900 5325 1900 5150
Wire Wire Line
	2025 5150 1900 5150
Connection ~ 1900 5150
Wire Wire Line
	1900 5150 1900 5050
$Comp
L Connector_Generic:Conn_01x08 J1
U 1 1 5DFD1597
P 1500 6175
F 0 "J1" H 1418 6692 50  0000 C CNN
F 1 "AUX" H 1450 6600 50  0000 C CNN
F 2 "Connector_PinHeader_2.54mm:PinHeader_1x08_P2.54mm_Vertical" H 1500 6175 50  0001 C CNN
F 3 "~" H 1500 6175 50  0001 C CNN
	1    1500 6175
	-1   0    0    -1  
$EndComp
Wire Wire Line
	1700 5975 2050 5975
Wire Wire Line
	1700 6075 2050 6075
Wire Wire Line
	2050 6175 1700 6175
Wire Wire Line
	1700 6275 2050 6275
Wire Wire Line
	2050 6375 1700 6375
Wire Wire Line
	1700 6475 2050 6475
Text Label 1800 5975 0    50   ~ 0
PTB2
Text Label 1800 6075 0    50   ~ 0
PTB3
Text Label 1800 6175 0    50   ~ 0
PTB10
Text Label 1800 6275 0    50   ~ 0
PTB11
Text Label 1800 6375 0    50   ~ 0
PTC11
Text Label 1800 6475 0    50   ~ 0
PTC10
$Comp
L power:GND #PWR0119
U 1 1 5DFEBE06
P 1775 6625
F 0 "#PWR0119" H 1775 6375 50  0001 C CNN
F 1 "GND" H 1780 6452 50  0000 C CNN
F 2 "" H 1775 6625 50  0001 C CNN
F 3 "" H 1775 6625 50  0001 C CNN
	1    1775 6625
	1    0    0    -1  
$EndComp
Wire Wire Line
	1775 6625 1775 6575
Wire Wire Line
	1775 6575 1700 6575
$Comp
L power:+3V3 #PWR0120
U 1 1 5DFF1854
P 1750 5800
F 0 "#PWR0120" H 1750 5650 50  0001 C CNN
F 1 "+3V3" H 1765 5973 50  0000 C CNN
F 2 "" H 1750 5800 50  0001 C CNN
F 3 "" H 1750 5800 50  0001 C CNN
	1    1750 5800
	1    0    0    -1  
$EndComp
Wire Wire Line
	1700 5875 1750 5875
Wire Wire Line
	1750 5875 1750 5800
Text Label 4550 6000 2    50   ~ 0
Z_LIMIT
Text Label 4575 4000 2    50   ~ 0
X_LIMIT
Connection ~ 4625 6000
Wire Wire Line
	4625 6000 4550 6000
Wire Wire Line
	4625 6000 4625 5925
Wire Wire Line
	4675 6000 4625 6000
$Comp
L power:+3V3 #PWR0121
U 1 1 5DEE793B
P 4625 5725
F 0 "#PWR0121" H 4625 5575 50  0001 C CNN
F 1 "+3V3" H 4640 5898 50  0000 C CNN
F 2 "" H 4625 5725 50  0001 C CNN
F 3 "" H 4625 5725 50  0001 C CNN
	1    4625 5725
	1    0    0    -1  
$EndComp
Wire Wire Line
	4625 6100 4675 6100
Wire Wire Line
	4625 6150 4625 6100
$Comp
L Device:R_Small R2
U 1 1 5DEDD77A
P 4625 5825
F 0 "R2" H 4684 5871 50  0000 L CNN
F 1 "4K7" H 4684 5780 50  0000 L CNN
F 2 "Resistor_SMD:R_0603_1608Metric" H 4625 5825 50  0001 C CNN
F 3 "~" H 4625 5825 50  0001 C CNN
	1    4625 5825
	1    0    0    -1  
$EndComp
$Comp
L power:GND #PWR0122
U 1 1 5DED15EB
P 4625 6150
F 0 "#PWR0122" H 4625 5900 50  0001 C CNN
F 1 "GND" H 4630 5977 50  0000 C CNN
F 2 "" H 4625 6150 50  0001 C CNN
F 3 "" H 4625 6150 50  0001 C CNN
	1    4625 6150
	1    0    0    -1  
$EndComp
$Comp
L Connector_Generic:Conn_01x02 J8
U 1 1 5DEE54CC
P 4875 6000
F 0 "J8" H 4955 5992 50  0000 L CNN
F 1 "Z_limit" H 4955 5901 50  0000 L CNN
F 2 "Connector_PinHeader_2.54mm:PinHeader_1x02_P2.54mm_Vertical" H 4875 6000 50  0001 C CNN
F 3 "~" H 4875 6000 50  0001 C CNN
	1    4875 6000
	1    0    0    -1  
$EndComp
$Comp
L Connector:Screw_Terminal_01x02 J2
U 1 1 5E0AB816
P 2150 1075
F 0 "J2" H 2068 1292 50  0000 C CNN
F 1 "PWR_IN" H 2068 1201 50  0000 C CNN
F 2 "Connector_Phoenix_MSTB:PhoenixContact_MSTBA_2,5_2-G-5,08_1x02_P5.08mm_Horizontal" H 2150 1075 50  0001 C CNN
F 3 "~" H 2150 1075 50  0001 C CNN
	1    2150 1075
	-1   0    0    -1  
$EndComp
$Comp
L power:GND #PWR0123
U 1 1 5E0AC5F5
P 2450 1275
F 0 "#PWR0123" H 2450 1025 50  0001 C CNN
F 1 "GND" H 2455 1102 50  0000 C CNN
F 2 "" H 2450 1275 50  0001 C CNN
F 3 "" H 2450 1275 50  0001 C CNN
	1    2450 1275
	1    0    0    -1  
$EndComp
Wire Wire Line
	2450 1275 2450 1175
Wire Wire Line
	2450 1175 2350 1175
Wire Wire Line
	2350 1075 2700 1075
Wire Wire Line
	2700 1075 2700 975 
$Comp
L Device:CP1 C1
U 1 1 5E0B6616
P 2700 1275
F 0 "C1" H 2815 1321 50  0000 L CNN
F 1 "470u" H 2815 1230 50  0000 L CNN
F 2 "Capacitor_THT:CP_Radial_D10.0mm_P5.00mm" H 2700 1275 50  0001 C CNN
F 3 "~" H 2700 1275 50  0001 C CNN
	1    2700 1275
	1    0    0    -1  
$EndComp
Wire Wire Line
	2700 1125 2700 1075
Connection ~ 2700 1075
$Comp
L power:GND #PWR0124
U 1 1 5E0BB5A2
P 2700 1425
F 0 "#PWR0124" H 2700 1175 50  0001 C CNN
F 1 "GND" H 2705 1252 50  0000 C CNN
F 2 "" H 2700 1425 50  0001 C CNN
F 3 "" H 2700 1425 50  0001 C CNN
	1    2700 1425
	1    0    0    -1  
$EndComp
$Comp
L power:+24V #PWR0125
U 1 1 5E0BBFE9
P 2700 975
F 0 "#PWR0125" H 2700 825 50  0001 C CNN
F 1 "+24V" H 2715 1148 50  0000 C CNN
F 2 "" H 2700 975 50  0001 C CNN
F 3 "" H 2700 975 50  0001 C CNN
	1    2700 975 
	1    0    0    -1  
$EndComp
NoConn ~ 11625 -6425
$Sheet
S 9275 2100 875  650 
U 5DE716BF
F0 "X_stepper" 50
F1 "stepper_driver.sch" 50
F2 "V_MOT" I L 9275 2175 50 
F3 "STEP" I L 9275 2275 50 
F4 "DIR" I L 9275 2375 50 
F5 "FAULT" I L 9275 2475 50 
F6 "ENABLE" I L 9275 2575 50 
F7 "RESET" I L 9275 2675 50 
F8 "VDD" I R 10150 2175 50 
$EndSheet
$Sheet
S 9275 2950 875  650 
U 5DEBDE7B
F0 "Y_stepper" 50
F1 "stepper_driver.sch" 50
F2 "V_MOT" I L 9275 3025 50 
F3 "STEP" I L 9275 3125 50 
F4 "DIR" I L 9275 3225 50 
F5 "FAULT" I L 9275 3325 50 
F6 "ENABLE" I L 9275 3425 50 
F7 "RESET" I L 9275 3525 50 
F8 "VDD" I R 10150 3025 50 
$EndSheet
$Sheet
S 9275 3800 875  650 
U 5DEBE719
F0 "Z1_stepper" 50
F1 "stepper_driver.sch" 50
F2 "V_MOT" I L 9275 3875 50 
F3 "STEP" I L 9275 3975 50 
F4 "DIR" I L 9275 4075 50 
F5 "FAULT" I L 9275 4175 50 
F6 "ENABLE" I L 9275 4275 50 
F7 "RESET" I L 9275 4375 50 
F8 "VDD" I R 10150 3875 50 
$EndSheet
$Sheet
S 9275 4650 875  650 
U 5DEBE721
F0 "Z2_stepper" 50
F1 "stepper_driver.sch" 50
F2 "V_MOT" I L 9275 4725 50 
F3 "STEP" I L 9275 4825 50 
F4 "DIR" I L 9275 4925 50 
F5 "FAULT" I L 9275 5025 50 
F6 "ENABLE" I L 9275 5125 50 
F7 "RESET" I L 9275 5225 50 
F8 "VDD" I R 10150 4725 50 
$EndSheet
Wire Wire Line
	9150 5225 9275 5225
Text Label 9150 5225 2    50   ~ 0
MOT_RST
Wire Wire Line
	9150 4375 9275 4375
Text Label 9150 4375 2    50   ~ 0
MOT_RST
Wire Wire Line
	9150 3525 9275 3525
Text Label 9150 3525 2    50   ~ 0
MOT_RST
Text Label 9150 2675 2    50   ~ 0
MOT_RST
Wire Wire Line
	9150 2675 9275 2675
$Comp
L power:+3V3 #PWR0116
U 1 1 5DF344E6
P 10250 4700
F 0 "#PWR0116" H 10250 4550 50  0001 C CNN
F 1 "+3V3" H 10265 4873 50  0000 C CNN
F 2 "" H 10250 4700 50  0001 C CNN
F 3 "" H 10250 4700 50  0001 C CNN
	1    10250 4700
	-1   0    0    -1  
$EndComp
Wire Wire Line
	10250 4725 10250 4700
Wire Wire Line
	10250 4725 10150 4725
$Comp
L power:+3V3 #PWR0130
U 1 1 5DF41C3D
P 10250 3850
F 0 "#PWR0130" H 10250 3700 50  0001 C CNN
F 1 "+3V3" H 10265 4023 50  0000 C CNN
F 2 "" H 10250 3850 50  0001 C CNN
F 3 "" H 10250 3850 50  0001 C CNN
	1    10250 3850
	-1   0    0    -1  
$EndComp
Wire Wire Line
	10250 3875 10250 3850
Wire Wire Line
	10250 3875 10150 3875
$Comp
L power:+3V3 #PWR0136
U 1 1 5DF48951
P 10250 3000
F 0 "#PWR0136" H 10250 2850 50  0001 C CNN
F 1 "+3V3" H 10265 3173 50  0000 C CNN
F 2 "" H 10250 3000 50  0001 C CNN
F 3 "" H 10250 3000 50  0001 C CNN
	1    10250 3000
	-1   0    0    -1  
$EndComp
Wire Wire Line
	10250 3025 10250 3000
Wire Wire Line
	10250 3025 10150 3025
$Comp
L power:+3V3 #PWR0142
U 1 1 5DF511BA
P 10250 2150
F 0 "#PWR0142" H 10250 2000 50  0001 C CNN
F 1 "+3V3" H 10265 2323 50  0000 C CNN
F 2 "" H 10250 2150 50  0001 C CNN
F 3 "" H 10250 2150 50  0001 C CNN
	1    10250 2150
	-1   0    0    -1  
$EndComp
Wire Wire Line
	10250 2175 10250 2150
Wire Wire Line
	10250 2175 10150 2175
$Comp
L Device:Jumper_NO_Small JP13
U 1 1 5DEB3998
P 5000 1625
F 0 "JP13" H 5000 1810 50  0000 C CNN
F 1 "MOTOR_RESET" H 5000 1719 50  0000 C CNN
F 2 "Jumper:SolderJumper-2_P1.3mm_Open_Pad1.0x1.5mm" H 5000 1625 50  0001 C CNN
F 3 "~" H 5000 1625 50  0001 C CNN
	1    5000 1625
	1    0    0    -1  
$EndComp
Text Label 5225 1625 0    50   ~ 0
MOT_RST
Wire Wire Line
	5225 1625 5100 1625
$Comp
L power:GND #PWR01
U 1 1 5DEB9F85
P 4850 1675
F 0 "#PWR01" H 4850 1425 50  0001 C CNN
F 1 "GND" H 4855 1502 50  0000 C CNN
F 2 "" H 4850 1675 50  0001 C CNN
F 3 "" H 4850 1675 50  0001 C CNN
	1    4850 1675
	1    0    0    -1  
$EndComp
Wire Wire Line
	4850 1675 4850 1625
Wire Wire Line
	4850 1625 4900 1625
$Comp
L power:GND #PWR?
U 1 1 5EB7A201
P 7950 3175
F 0 "#PWR?" H 7950 2925 50  0001 C CNN
F 1 "GND" H 7955 3002 50  0000 C CNN
F 2 "" H 7950 3175 50  0001 C CNN
F 3 "" H 7950 3175 50  0001 C CNN
	1    7950 3175
	1    0    0    -1  
$EndComp
Wire Wire Line
	7950 3175 7950 3125
Wire Wire Line
	7950 2725 7850 2725
Wire Wire Line
	7850 2925 7950 2925
Connection ~ 7950 2925
Wire Wire Line
	7950 2925 7950 2725
Wire Wire Line
	7850 3125 7950 3125
Connection ~ 7950 3125
Wire Wire Line
	7950 3125 7950 2925
$EndSCHEMATC
